…
First thing that I want to change is removal dollar sign $ from column Price to make possible change datatype of this variable from character to double. And second action - using *lubridate* package - I change datatype of Last Updated from character to date, because later I am going to work on this variable as date a lot of times.


```
## # A tibble: 93 x 3
##    Price     n count
##    <chr> <int> <int>
##  1 $0.99   148 10841
##  2 $1.00     3 10841
##  3 $1.04     1 10841
##  4 $1.20     1 10841
##  5 $1.26     1 10841
##  6 $1.29     1 10841
##  7 $1.49    46 10841
##  8 $1.50     1 10841
##  9 $1.59     1 10841
## 10 $1.61     1 10841
## # ... with 83 more rows
```

```r
play <- play %>% 
  mutate(Price = as.numeric(str_remove(Price, "[$]"))) %>%  #also str_replace_all()
  replace_na(list(Price = 0)) %>% #Everynone -> NA -> 0
  mutate(`Last Updated` = mdy(`Last Updated`))
```

Now, as you can see, column Size contains also character variables, but I would expect here numeric datatype - that's why first of all I have to distinguish kb from Mb, remove some characters  to switch to a common unit - I have chosen Mb. In this step I lost some of data, because some of variables have "Varies with device" instead of specific values.


```
## # A tibble: 462 x 3
##    Size       n count
##    <chr>  <int> <int>
##  1 1,000+     1 10841
##  2 1.0M       7 10841
##  3 1.1M      32 10841
##  4 1.2M      41 10841
##  5 1.3M      35 10841
##  6 1.4M      37 10841
##  7 1.5M      48 10841
##  8 1.6M      39 10841
##  9 1.7M      40 10841
## 10 1.8M      50 10841
## # ... with 452 more rows
```

```r
play <- play %>% 
  mutate(kb = ifelse(str_detect(Size, "k"), Size, 0),
         Mb = ifelse(str_detect(Size, "M"), Size, 0)) %>% 
  mutate(kb = as.numeric(str_remove(kb, "k")),
         Mb = as.numeric(str_remove(Mb, "M"))) %>% 
  mutate(kb = kb / 1024,
         actual_size = kb + Mb) #Varies with device -> 0
```

```
## # A tibble: 460 x 3
##    actual_size     n count
##          <dbl> <int> <int>
##  1     0        1696 10841
##  2     0.00830     1 10841
##  3     0.0107      1 10841
##  4     0.0137      1 10841
##  5     0.0166      2 10841
##  6     0.0176      2 10841
##  7     0.0195      1 10841
##  8     0.0225      1 10841
##  9     0.0234      1 10841
## 10     0.0244      1 10841
## # ... with 450 more rows
```
…
From Installs variable I need to delete characters like plus and comma signs
to make possible change default datatype to numeric. Removal of comma sign was especially harder, because of it is special character in R environment. 


```
## # A tibble: 22 x 3
##    Installs           n count
##    <chr>          <int> <int>
##  1 0                  1 10841
##  2 0+                14 10841
##  3 1,000,000,000+    58 10841
##  4 1,000,000+      1579 10841
##  5 1,000+           907 10841
##  6 1+                67 10841
##  7 10,000,000+     1252 10841
##  8 10,000+         1054 10841
##  9 10+              386 10841
## 10 100,000,000+     409 10841
## # ... with 12 more rows
```
…
